{
  "id": "37dbe91f-beee-4ba3-a393-9118efd2be6d",
  "name": "Auto Approve",
  "form": "5992d0d6-4dbe-4ddd-b12b-a17635024e5c",
  "active": true,
  "workflowTypeId": "4c40a092-0cb5-481d-96a7-a02d8e7cdb2f",
  "executesOn": "Submitted",
  "settings": {
    "Words": "True",
    "Action": "Approve Record"
  },
  "sortOrder": 0
}