{
  "id": "e40b0c72-1c0d-464d-aa95-a92c1a1cd50d",
  "name": "Send Email",
  "form": "5992d0d6-4dbe-4ddd-b12b-a17635024e5c",
  "active": true,
  "workflowTypeId": "e96badd7-05be-4978-b8d9-b3d733de70a5",
  "executesOn": "Approved",
  "settings": {
    "Email": "volodymyr.kuybida@mccain.ca",
    "SenderEmail": "volodymyr.kuybida@mccain.ca",
    "Subject": "Contact Us Form - Submission #{record.id}",
    "Message": "Contact Us - Form Submission #{record.id}",
    "Attachment": ""
  },
  "sortOrder": 0
}